Kdrs;Klsrs;Norm;Klsrawat;Biaya;Jnsrawat;Tglmsk;Tglklr;Los;Tgllhr;UmurThn;UmurHari;JK;CaraPlg;Berat;Dutama;D1;D2;D3;D4;D5;D6;D7;D8;D9;D10;D11;D12;D13;D14;D15;D16;D17;D18;D19;D20;D21;D22;D23;D24;D25;D26;D27;D28;D29;P1;P2;P3;P4;P5;P6;P7;P8;P9;P10;P11;P12;P13;P14;P15;P16;P17;P18;P19;P20;P21;P22;P23;P24;P25;P26;P27;P28;P29;P30;Recid;Inacbg;Tarif;Deskripsi;ALOS;NamaPasien;DPJP;SKP;Rujukan;BHP;HargaBHP;PengesahanSL3;C1;C2;C3
1234567;A;1300022;KLSRAWAT;105000.00;2;2013-10-15;;;1970-01-01;43;15993;2;5;0;;;;;;;;;;;;;;;;;;;;;;;;;;;;;;;;;;;;;;;;;;;;;;;;;;;;;;;;;;;;;;;0;;0;Test4, Ny;Desi Fitriani. Dr, SpPD;1^0;TIDAK;;0;tidak ada;;1;
1234567;A;1300022;KLSRAWAT;26250.00;2;2013-10-15;;;1970-01-01;43;15993;2;5;0;;;;;;;;;;;;;;;;;;;;;;;;;;;;;;;;;;;;;;;;;;;;;;;;;;;;;;;;;;;;;;;0;;0;Test4, Ny;Desi Fitriani. Dr, SpPD;1^0;TIDAK;;0;tidak ada;;1;
1234567;A;1300022;KLSRAWAT;346500.00;2;2013-10-15;;;1970-01-01;43;15993;2;5;0;;;;;;;;;;;;;;;;;;;;;;;;;;;;;;;;;;;;;;;;;;;;;;;;;;;;;;;;;;;;;;;0;;0;Test4, Ny;Desi Fitriani. Dr, SpPD;1^0;TIDAK;;0;tidak ada;;1;
1234567;A;1300022;KLSRAWAT;200000.00;2;2013-10-15;;;1970-01-01;43;15993;2;5;0;;;;;;;;;;;;;;;;;;;;;;;;;;;;;;;;;;;;;;;;;;;;;;;;;;;;;;;;;;;;;;;0;;0;Test4, Ny;Desi Fitriani. Dr, SpPD;1^0;TIDAK;;0;tidak ada;;1;
1234567;A;1300022;KLSRAWAT;100000.00;2;2013-10-15;;;1970-01-01;43;15993;2;5;0;;;;;;;;;;;;;;;;;;;;;;;;;;;;;;;;;;;;;;;;;;;;;;;;;;;;;;;;;;;;;;;0;;0;Test4, Ny;Desi Fitriani. Dr, SpPD;1^0;TIDAK;;0;tidak ada;;1;
1234567;A;1300022;KLSRAWAT;52500.00;2;2013-10-15;;;1970-01-01;43;15993;2;5;0;;;;;;;;;;;;;;;;;;;;;;;;;;;;;;;;;;;;;;;;;;;;;;;;;;;;;;;;;;;;;;;0;;0;Test4, Ny;Desi Fitriani. Dr, SpPD;1^0;TIDAK;;0;tidak ada;;1;
1234567;A;1300022;KLSRAWAT;1365000.00;2;2013-10-15;;;1970-01-01;43;15993;2;5;0;;;;;;;;;;;;;;;;;;;;;;;;;;;;;;;;;;;;;;;;;;;;;;;;;;;;;;;;;;;;;;;0;;0;Test4, Ny;Desi Fitriani. Dr, SpPD;1^0;TIDAK;;0;tidak ada;;1;
